final_code
…
## Parsed with column specification:
## cols(
##   .default = col_double(),
##   STNAME = col_character(),
##   CTYNAME = col_character()
## )

## See spec(...) for full column specifications.

county_pop <- county_pop %>%
  select(c(ctyname, popestimate2016))

county_pop[-c(329),]

## # A tibble: 3,192 x 2
##    ctyname         popestimate2016
##    <chr>                     <dbl>
##  1 Alabama                 4863525
##  2 Autauga County            55243
##  3 Baldwin County           207601
##  4 Barbour County            25806
##  5 Bibb County               22586
##  6 Blount County             57494
##  7 Bullock County            10389
##  8 Butler County             20012
##  9 Calhoun County           114973
## 10 Chambers County           33745
## # ... with 3,182 more rows

county_pop <- county_pop %>%
  mutate(ID_2 = seq.int(nrow(county_pop))) %>%
  dplyr::rename("county_c" = ctyname)

pres_income <- pres_income %>%
  mutate(county_c = paste0(county, " County"))

inner_join(county_pop, income_county_ns)

## Joining, by = "ID_2"

## # A tibble: 3,163 x 11
##    county_c popestimate2016  ID_2 county personal_income~ personal_income~
##    <chr>              <dbl> <int> <chr>  <chr>                       <dbl>
##  1 Alabama          4863525     1 Alaba~ 39224                       40467
##  2 Autauga~           55243     2 Autau~ 39561                       40450
##  3 Baldwin~          207601     3 Baldw~ 42907                       43989
##  4 Barbour~           25806     4 Barbo~ 31595                       33048
##  5 Bibb Co~           22586     5 Bibb   28799                       29081
##  6 Blount ~           57494     6 Blount 32389                       33533
##  7 Bullock~           10389     7 Bullo~ 26655                       27442
##  8 Butler ~           20012     8 Butler 33501                       34733
##  9 Calhoun~          114973     9 Calho~ 34774                       35721
## 10 Chamber~           33745    10 Chamb~ 32470                       32583
## # ... with 3,153 more rows, and 5 more variables: personal_income_2018 <dbl>,
## #   personal_income_rank_state_2018 <chr>, ID <int>, state_po <chr>,
## #   abb_county <chr>
…
grad_ed <- grad_ed[12:3344,]

grad_ed <- grad_ed %>%
  dplyr::rename(
    "percent" = data,
    "school_district" = location,
    "year" = time_frame
  ) %>%
  select(c(school_district, year, percent))

grad_ed

## # A tibble: 3,333 x 3
##    school_district                   year  percent
##    <chr>                             <chr> <chr>  
##  1 Abby Kelley Foster Charter Public 2006  1      
##  2 Abby Kelley Foster Charter Public 2007  0.875  
##  3 Abby Kelley Foster Charter Public 2008  1      
##  4 Abby Kelley Foster Charter Public 2009  0.952  
##  5 Abby Kelley Foster Charter Public 2010  0.907  
##  6 Abby Kelley Foster Charter Public 2011  0.968  
##  7 Abby Kelley Foster Charter Public 2012  0.987  
##  8 Abby Kelley Foster Charter Public 2013  0.93   
##  9 Abby Kelley Foster Charter Public 2014  0.989  
## 10 Abby Kelley Foster Charter Public 2015  0.951  
## # ... with 3,323 more rows
